name="The Cult of Santa Muerte"
tags={
	"Alternative History"
	"Map"
	"National Focuses"
	"Events"
}
dependencies={
	"Old World Blues"
}
supported_version="1.9.*"
path="E:/Paradox/mod/cult_of_santa_muerte"